<?xml version="1.0" standalone="no"?>
<!DOCTYPE svg PUBLIC "-//W3C//DTD SVG 20010904//EN"
 "http://www.w3.org/TR/2001/REC-SVG-20010904/DTD/svg10.dtd">
<svg version="1.0" xmlns="http://www.w3.org/2000/svg"
 width="300.000000pt" height="93.000000pt" viewBox="0 0 300.000000 93.000000"
 preserveAspectRatio="xMidYMid meet">
<metadata>
Created by potrace 1.16, written by Peter Selinger 2001-2019
</metadata>
<g transform="translate(0.000000,93.000000) scale(0.100000,-0.100000)"
fill="#000000" stroke="none">
<path d="M17 773 c-4 -71 -7 -163 -7 -207 l0 -78 193 4 c213 4 243 12 272 69
23 43 5 94 -42 121 l-34 21 30 18 c77 47 66 135 -22 168 -16 6 -104 11 -206
11 l-178 0 -6 -127z m307 -145 c8 -22 6 -32 -9 -48 -15 -16 -30 -20 -87 -20
l-68 0 0 43 c0 24 3 47 7 51 4 4 39 5 77 4 67 -3 71 -5 80 -30z"/>
<path d="M735 886 c-62 -20 -100 -42 -130 -78 -35 -41 -47 -73 -47 -124 0 -79
48 -136 149 -175 84 -33 252 -33 338 1 77 30 130 83 143 145 23 109 -36 193
-161 230 -62 18 -235 19 -292 1z m225 -86 c99 -51 90 -182 -17 -226 -126 -53
-263 56 -212 169 31 68 149 98 229 57z"/>
<path d="M1286 753 c-4 -82 -9 -174 -12 -205 -5 -53 -8 -58 -30 -58 -64 0
-405 -53 -509 -80 -228 -57 -355 -141 -355 -232 0 -49 27 -101 62 -119 l23
-12 -23 25 c-13 14 -27 42 -33 62 -41 150 245 265 791 317 196 19 771 16 976
-4 241 -24 457 -60 650 -107 92 -22 168 -40 170 -40 2 0 4 27 4 60 0 33 -2 60
-5 60 -2 0 -68 11 -147 24 -129 22 -197 31 -380 51 l-58 6 35 33 c22 21 35 43
35 59 0 36 -44 83 -104 114 -67 33 -86 51 -86 79 0 30 31 39 116 31 63 -6 64
-6 64 19 0 59 -11 64 -128 64 -157 -1 -212 -30 -212 -112 0 -38 40 -83 100
-113 50 -25 80 -55 80 -81 0 -44 -93 -53 -184 -18 -16 6 -18 3 -14 -24 l5 -32
-60 0 -59 0 7 170 c4 94 8 178 9 188 1 14 -9 18 -59 20 -108 6 -101 17 -109
-177 -3 -94 -9 -177 -12 -185 -5 -12 -21 -16 -63 -16 l-57 0 -37 69 c-20 37
-37 73 -37 78 0 6 13 13 29 16 47 10 81 47 88 94 5 37 2 46 -24 72 -43 42 -88
51 -274 51 l-167 0 -6 -147z m304 47 c25 -25 25 -31 -1 -64 -17 -22 -28 -26
-70 -26 -27 0 -49 -2 -49 -4 0 -2 11 -26 24 -53 48 -98 58 -122 51 -132 -3 -6
-31 -11 -61 -11 l-54 0 0 103 c0 56 3 126 6 155 l7 52 63 0 c51 0 68 -4 84
-20z"/>
<path d="M814 313 l-62 -4 -6 -52 c-3 -29 -7 -92 -8 -142 l-2 -90 52 -3 52 -3
2 68 c1 37 3 77 4 88 1 11 2 37 3 58 1 34 3 37 32 37 40 0 69 -16 69 -38 0
-22 -19 -42 -40 -42 -26 0 -41 -15 -34 -35 6 -15 15 -17 66 -11 75 8 94 18
108 61 23 70 -29 116 -130 113 -25 -1 -73 -3 -106 -5z"/>
<path d="M1116 268 c-3 -29 -7 -96 -8 -148 l-3 -95 44 -3 c24 -2 47 0 51 5 5
4 11 72 15 151 l8 142 -51 0 -51 0 -5 -52z"/>
<path d="M1988 288 c-17 -6 -28 -17 -28 -29 0 -12 -7 -19 -20 -19 -15 0 -20
-7 -20 -25 0 -18 5 -25 18 -25 16 0 18 -7 14 -55 -9 -104 17 -132 105 -118 34
6 48 14 54 31 7 20 5 22 -21 22 -35 0 -46 28 -36 85 6 31 11 35 36 35 25 0 30
4 30 24 0 19 -6 25 -27 28 -22 2 -29 9 -31 31 -4 30 -24 34 -74 15z"/>
<path d="M1370 241 c-31 -4 -46 -11 -48 -23 -3 -15 4 -17 60 -11 49 4 66 2 76
-9 19 -23 -6 -38 -78 -48 -34 -5 -72 -16 -86 -25 -24 -15 -31 -49 -16 -71 23
-35 134 -49 146 -18 9 23 8 24 -23 24 -17 0 -33 5 -37 12 -12 18 35 49 70 46
30 -3 31 -5 31 -48 l0 -45 47 -3 46 -3 7 85 c4 47 5 93 1 101 -14 37 -88 50
-196 36z"/>
<path d="M1702 239 c-34 -10 -56 -46 -46 -74 4 -9 26 -27 50 -41 69 -41 51
-78 -28 -57 -36 10 -38 9 -38 -13 0 -30 28 -38 117 -32 53 3 69 8 84 27 25 30
12 60 -37 88 -23 13 -39 30 -39 40 0 15 8 18 48 16 40 -1 47 2 47 17 0 10 -3
21 -7 23 -18 11 -121 15 -151 6z"/>
<path d="M2485 245 c-5 -2 -26 -6 -46 -9 -56 -10 -89 -46 -89 -98 0 -80 51
-118 160 -118 45 0 60 4 60 14 0 8 3 21 6 30 5 12 -1 14 -30 9 -20 -3 -49 0
-65 7 -82 34 -12 132 81 113 28 -6 30 -4 23 18 -4 13 -8 25 -9 26 -4 5 -82 12
-91 8z"/>
<path d="M2180 140 c0 -55 -1 -103 -2 -107 -2 -5 19 -9 45 -10 30 -1 50 3 52
10 2 7 6 56 10 110 l6 97 -55 0 -56 0 0 -100z"/>
<path d="M2698 233 c-10 -2 -18 -14 -18 -25 0 -15 4 -18 18 -13 9 3 37 9 62
12 35 4 49 1 59 -11 21 -25 1 -38 -70 -47 -62 -7 -111 -33 -117 -61 -2 -8 5
-25 15 -37 22 -28 109 -47 130 -30 20 18 16 27 -17 34 -16 4 -30 13 -30 21 0
20 45 46 72 42 20 -3 23 -10 26 -50 l3 -48 43 0 c53 0 56 6 56 110 0 102 -10
110 -130 109 -47 -1 -93 -3 -102 -6z"/>
</g>
</svg>
